service_id,date,exception_type
1,20140321,1
1,20140322,1
1,20140328,1
1,20140329,1
1,20140404,1
1,20140405,1
1,20140411,1
1,20140412,1
1,20140418,1
1,20140419,1
1,20140425,1
1,20140426,1
1,20140502,1
1,20140503,1
1,20140509,1
1,20140510,1
1,20140516,1
1,20140517,1
1,20140523,1
1,20140524,1
1,20140525,1
1,20140530,1
1,20140531,1
1,20140606,1
1,20140607,1
1,20140613,1
1,20140614,1
1,20140620,1
1,20140621,1
1,20140627,1
1,20140628,1
1,20140703,1
1,20140704,1
1,20140705,1
1,20140711,1
1,20140712,1
1,20140718,1
1,20140719,1
1,20140725,1
1,20140726,1
1,20140801,1
1,20140802,1
1,20140808,1
1,20140809,1
1,20140815,1
1,20140816,1
1,20140822,1
1,20140823,1
1,20140829,1
1,20140830,1
1,20140831,1
1,20140905,1
2,20140322,1
2,20140323,1
2,20140329,1
2,20140330,1
2,20140405,1
2,20140406,1
2,20140412,1
2,20140413,1
2,20140419,1
2,20140420,1
2,20140426,1
2,20140427,1
2,20140503,1
2,20140504,1
2,20140510,1
2,20140511,1
2,20140517,1
2,20140518,1
2,20140524,1
2,20140525,1
2,20140526,1
2,20140531,1
2,20140601,1
2,20140607,1
2,20140608,1
2,20140614,1
2,20140615,1
2,20140621,1
2,20140622,1
2,20140628,1
2,20140629,1
2,20140704,1
2,20140705,1
2,20140706,1
2,20140712,1
2,20140713,1
2,20140719,1
2,20140720,1
2,20140726,1
2,20140727,1
2,20140802,1
2,20140803,1
2,20140809,1
2,20140810,1
2,20140816,1
2,20140817,1
2,20140823,1
2,20140824,1
2,20140830,1
2,20140831,1
2,20140901,1
2,20140906,1
3,20140320,1
3,20140323,1
3,20140324,1
3,20140325,1
3,20140326,1
3,20140327,1
3,20140330,1
3,20140331,1
3,20140401,1
3,20140402,1
3,20140403,1
3,20140406,1
3,20140407,1
3,20140408,1
3,20140409,1
3,20140410,1
3,20140413,1
3,20140414,1
3,20140415,1
3,20140416,1
3,20140417,1
3,20140420,1
3,20140421,1
3,20140422,1
3,20140423,1
3,20140424,1
3,20140427,1
3,20140428,1
3,20140429,1
3,20140430,1
3,20140501,1
3,20140504,1
3,20140505,1
3,20140506,1
3,20140507,1
3,20140508,1
3,20140511,1
3,20140512,1
3,20140513,1
3,20140514,1
3,20140515,1
3,20140518,1
3,20140519,1
3,20140520,1
3,20140521,1
3,20140522,1
3,20140526,1
3,20140527,1
3,20140528,1
3,20140529,1
3,20140601,1
3,20140602,1
3,20140603,1
3,20140604,1
3,20140605,1
3,20140608,1
3,20140609,1
3,20140610,1
3,20140611,1
3,20140612,1
3,20140615,1
3,20140616,1
3,20140617,1
3,20140618,1
3,20140619,1
3,20140622,1
3,20140623,1
3,20140624,1
3,20140625,1
3,20140626,1
3,20140629,1
3,20140630,1
3,20140701,1
3,20140702,1
3,20140706,1
3,20140707,1
3,20140708,1
3,20140709,1
3,20140710,1
3,20140713,1
3,20140714,1
3,20140715,1
3,20140716,1
3,20140717,1
3,20140720,1
3,20140721,1
3,20140722,1
3,20140723,1
3,20140724,1
3,20140727,1
3,20140728,1
3,20140729,1
3,20140730,1
3,20140731,1
3,20140803,1
3,20140804,1
3,20140805,1
3,20140806,1
3,20140807,1
3,20140810,1
3,20140811,1
3,20140812,1
3,20140813,1
3,20140814,1
3,20140817,1
3,20140818,1
3,20140819,1
3,20140820,1
3,20140821,1
3,20140824,1
3,20140825,1
3,20140826,1
3,20140827,1
3,20140828,1
3,20140901,1
3,20140902,1
3,20140903,1
3,20140904,1
4,20140320,1
4,20140321,1
4,20140324,1
4,20140325,1
4,20140326,1
4,20140327,1
4,20140328,1
4,20140331,1
4,20140401,1
4,20140402,1
4,20140403,1
4,20140404,1
4,20140407,1
4,20140408,1
4,20140409,1
4,20140410,1
4,20140411,1
4,20140414,1
4,20140415,1
4,20140416,1
4,20140417,1
4,20140418,1
4,20140421,1
4,20140422,1
4,20140423,1
4,20140424,1
4,20140425,1
4,20140428,1
4,20140429,1
4,20140430,1
4,20140501,1
4,20140502,1
4,20140505,1
4,20140506,1
4,20140507,1
4,20140508,1
4,20140509,1
4,20140512,1
4,20140513,1
4,20140514,1
4,20140515,1
4,20140516,1
4,20140519,1
4,20140520,1
4,20140521,1
4,20140522,1
4,20140523,1
4,20140527,1
4,20140528,1
4,20140529,1
4,20140530,1
4,20140602,1
4,20140603,1
4,20140604,1
4,20140605,1
4,20140606,1
4,20140609,1
4,20140610,1
4,20140611,1
4,20140612,1
4,20140613,1
4,20140616,1
4,20140617,1
4,20140618,1
4,20140619,1
4,20140620,1
4,20140623,1
4,20140624,1
4,20140625,1
4,20140626,1
4,20140627,1
4,20140630,1
4,20140701,1
4,20140702,1
4,20140703,1
4,20140707,1
4,20140708,1
4,20140709,1
4,20140710,1
4,20140711,1
4,20140714,1
4,20140715,1
4,20140716,1
4,20140717,1
4,20140718,1
4,20140721,1
4,20140722,1
4,20140723,1
4,20140724,1
4,20140725,1
4,20140728,1
4,20140729,1
4,20140730,1
4,20140731,1
4,20140801,1
4,20140804,1
4,20140805,1
4,20140806,1
4,20140807,1
4,20140808,1
4,20140811,1
4,20140812,1
4,20140813,1
4,20140814,1
4,20140815,1
4,20140818,1
4,20140819,1
4,20140820,1
4,20140821,1
4,20140822,1
4,20140825,1
4,20140826,1
4,20140827,1
4,20140828,1
4,20140829,1
4,20140902,1
4,20140903,1
4,20140904,1
4,20140905,1
5,20140504,1
6,20140523,1
6,20140703,1
6,20140829,1
7,20140322,1
7,20140323,1
7,20140329,1
7,20140330,1
7,20140405,1
7,20140406,1
7,20140412,1
7,20140413,1
7,20140419,1
7,20140420,1
7,20140426,1
7,20140427,1
7,20140503,1
7,20140504,1
7,20140510,1
7,20140511,1
7,20140517,1
7,20140518,1
7,20140524,1
7,20140525,1
7,20140526,1
7,20140531,1
7,20140601,1
7,20140607,1
7,20140608,1
7,20140614,1
7,20140615,1
7,20140621,1
7,20140622,1
7,20140628,1
7,20140629,1
7,20140704,1
7,20140705,1
7,20140706,1
7,20140712,1
7,20140713,1
7,20140719,1
7,20140720,1
7,20140726,1
7,20140727,1
7,20140802,1
7,20140803,1
7,20140809,1
7,20140810,1
7,20140816,1
7,20140817,1
7,20140823,1
7,20140824,1
7,20140830,1
7,20140831,1
7,20140901,1
8,20140320,1
8,20140321,1
8,20140324,1
8,20140325,1
8,20140326,1
8,20140327,1
8,20140328,1
8,20140331,1
8,20140401,1
8,20140402,1
8,20140403,1
8,20140404,1
8,20140407,1
8,20140408,1
8,20140409,1
8,20140410,1
8,20140411,1
8,20140414,1
8,20140415,1
8,20140416,1
8,20140417,1
8,20140418,1
8,20140421,1
8,20140422,1
8,20140423,1
8,20140424,1
8,20140425,1
8,20140428,1
8,20140429,1
8,20140430,1
8,20140501,1
8,20140502,1
8,20140505,1
8,20140506,1
8,20140507,1
8,20140508,1
8,20140509,1
8,20140512,1
8,20140513,1
8,20140514,1
8,20140515,1
8,20140516,1
8,20140519,1
8,20140520,1
8,20140521,1
8,20140522,1
8,20140527,1
8,20140528,1
8,20140529,1
8,20140530,1
8,20140602,1
8,20140603,1
8,20140604,1
8,20140605,1
8,20140606,1
8,20140609,1
8,20140610,1
8,20140611,1
8,20140612,1
8,20140613,1
8,20140616,1
8,20140617,1
8,20140618,1
8,20140619,1
8,20140620,1
8,20140623,1
8,20140624,1
8,20140625,1
8,20140626,1
8,20140627,1
8,20140630,1
8,20140701,1
8,20140702,1
8,20140707,1
8,20140708,1
8,20140709,1
8,20140710,1
8,20140711,1
8,20140714,1
8,20140715,1
8,20140716,1
8,20140717,1
8,20140718,1
8,20140721,1
8,20140722,1
8,20140723,1
8,20140724,1
8,20140725,1
8,20140728,1
8,20140729,1
8,20140730,1
8,20140731,1
8,20140801,1
8,20140804,1
8,20140805,1
8,20140806,1
8,20140807,1
8,20140808,1
8,20140811,1
8,20140812,1
8,20140813,1
8,20140814,1
8,20140815,1
8,20140818,1
8,20140819,1
8,20140820,1
8,20140821,1
8,20140822,1
8,20140825,1
8,20140826,1
8,20140827,1
8,20140828,1
8,20140902,1
8,20140903,1
8,20140904,1
8,20140905,1
9,20140322,1
9,20140329,1
9,20140405,1
9,20140412,1
9,20140419,1
9,20140426,1
9,20140503,1
9,20140510,1
9,20140517,1
9,20140524,1
9,20140531,1
9,20140607,1
9,20140614,1
9,20140621,1
9,20140628,1
9,20140705,1
9,20140712,1
9,20140719,1
9,20140726,1
9,20140802,1
9,20140809,1
9,20140816,1
9,20140823,1
9,20140830,1
9,20140906,1
9,20140913,1
10,20140323,1
10,20140330,1
10,20140406,1
10,20140413,1
10,20140420,1
10,20140427,1
10,20140504,1
10,20140511,1
10,20140518,1
10,20140525,1
10,20140601,1
10,20140608,1
10,20140615,1
10,20140622,1
10,20140629,1
10,20140706,1
10,20140713,1
10,20140720,1
10,20140727,1
10,20140803,1
10,20140810,1
10,20140817,1
10,20140824,1
10,20140831,1
10,20140907,1
10,20140914,1
11,20140320,1
11,20140321,1
11,20140324,1
11,20140325,1
11,20140326,1
11,20140327,1
11,20140328,1
11,20140331,1
11,20140401,1
11,20140402,1
11,20140403,1
11,20140404,1
11,20140407,1
11,20140408,1
11,20140409,1
11,20140410,1
11,20140411,1
11,20140414,1
11,20140415,1
11,20140416,1
11,20140417,1
11,20140418,1
11,20140421,1
11,20140422,1
11,20140423,1
11,20140424,1
11,20140425,1
11,20140428,1
11,20140429,1
11,20140430,1
11,20140501,1
11,20140502,1
11,20140505,1
11,20140506,1
11,20140507,1
11,20140508,1
11,20140509,1
11,20140512,1
11,20140513,1
11,20140514,1
11,20140515,1
11,20140516,1
11,20140519,1
11,20140520,1
11,20140521,1
11,20140522,1
11,20140523,1
11,20140526,1
11,20140527,1
11,20140528,1
11,20140529,1
11,20140530,1
11,20140602,1
11,20140603,1
11,20140604,1
11,20140605,1
11,20140606,1
11,20140609,1
11,20140610,1
11,20140611,1
11,20140612,1
11,20140613,1
11,20140616,1
11,20140617,1
11,20140618,1
11,20140619,1
11,20140620,1
11,20140623,1
11,20140624,1
11,20140625,1
11,20140626,1
11,20140627,1
11,20140630,1
11,20140701,1
11,20140702,1
11,20140703,1
11,20140704,1
11,20140707,1
11,20140708,1
11,20140709,1
11,20140710,1
11,20140711,1
11,20140714,1
11,20140715,1
11,20140716,1
11,20140717,1
11,20140718,1
11,20140721,1
11,20140722,1
11,20140723,1
11,20140724,1
11,20140725,1
11,20140728,1
11,20140729,1
11,20140730,1
11,20140731,1
11,20140801,1
11,20140804,1
11,20140805,1
11,20140806,1
11,20140807,1
11,20140808,1
11,20140811,1
11,20140812,1
11,20140813,1
11,20140814,1
11,20140815,1
11,20140818,1
11,20140819,1
11,20140820,1
11,20140821,1
11,20140822,1
11,20140825,1
11,20140826,1
11,20140827,1
11,20140828,1
11,20140829,1
11,20140901,1
11,20140902,1
11,20140903,1
11,20140904,1
11,20140905,1
11,20140908,1
11,20140909,1
11,20140910,1
11,20140911,1
11,20140912,1
11,20140915,1
12,20140329,1
12,20140330,1
12,20140405,1
12,20140406,1
13,20140322,1
13,20140329,1
13,20140405,1
13,20140412,1
13,20140419,1
13,20140426,1
13,20140503,1
13,20140510,1
13,20140517,1
13,20140524,1
13,20140531,1
13,20140607,1
13,20140614,1
13,20140621,1
13,20140628,1
13,20140705,1
13,20140712,1
13,20140719,1
13,20140726,1
13,20140802,1
13,20140809,1
13,20140816,1
13,20140823,1
13,20140830,1
13,20140906,1
14,20140323,1
14,20140330,1
14,20140406,1
14,20140413,1
14,20140420,1
14,20140427,1
14,20140504,1
14,20140511,1
14,20140518,1
14,20140525,1
14,20140526,1
14,20140601,1
14,20140608,1
14,20140615,1
14,20140622,1
14,20140629,1
14,20140704,1
14,20140706,1
14,20140713,1
14,20140720,1
14,20140727,1
14,20140803,1
14,20140810,1
14,20140817,1
14,20140824,1
14,20140831,1
14,20140901,1
15,20140526,1
15,20140704,1
15,20140706,1
15,20140901,1
16,20140322,1
16,20140413,1
16,20140419,1
16,20140420,1
16,20140426,1
16,20140427,1
16,20140503,1
16,20140504,1
16,20140510,1
16,20140511,1
16,20140517,1
16,20140518,1
16,20140524,1
16,20140525,1
16,20140526,1
16,20140531,1
16,20140601,1
16,20140607,1
16,20140608,1
16,20140614,1
16,20140615,1
16,20140621,1
16,20140622,1
16,20140628,1
16,20140629,1
16,20140704,1
16,20140705,1
16,20140706,1
16,20140712,1
16,20140713,1
16,20140719,1
16,20140720,1
16,20140726,1
16,20140727,1
16,20140802,1
16,20140803,1
16,20140809,1
16,20140810,1
16,20140816,1
16,20140817,1
16,20140823,1
16,20140824,1
16,20140830,1
16,20140831,1
16,20140901,1
16,20140906,1
17,20140323,1
17,20140412,1
18,20140321,1
18,20140328,1
18,20140404,1
18,20140411,1
18,20140418,1
18,20140425,1
18,20140502,1
18,20140509,1
18,20140516,1
18,20140523,1
18,20140530,1
18,20140606,1
18,20140613,1
18,20140620,1
18,20140627,1
18,20140703,1
18,20140704,1
18,20140711,1
18,20140718,1
18,20140725,1
18,20140801,1
18,20140808,1
18,20140815,1
18,20140822,1
18,20140829,1
18,20140905,1
19,20140320,1
19,20140324,1
19,20140325,1
19,20140326,1
19,20140327,1
19,20140331,1
19,20140401,1
19,20140402,1
19,20140403,1
19,20140407,1
19,20140408,1
19,20140409,1
19,20140410,1
19,20140414,1
19,20140415,1
19,20140416,1
19,20140417,1
19,20140421,1
19,20140422,1
19,20140423,1
19,20140424,1
19,20140428,1
19,20140429,1
19,20140430,1
19,20140501,1
19,20140505,1
19,20140506,1
19,20140507,1
19,20140508,1
19,20140512,1
19,20140513,1
19,20140514,1
19,20140515,1
19,20140519,1
19,20140520,1
19,20140521,1
19,20140522,1
19,20140527,1
19,20140528,1
19,20140529,1
19,20140602,1
19,20140603,1
19,20140604,1
19,20140605,1
19,20140609,1
19,20140610,1
19,20140611,1
19,20140612,1
19,20140616,1
19,20140617,1
19,20140618,1
19,20140619,1
19,20140623,1
19,20140624,1
19,20140625,1
19,20140626,1
19,20140630,1
19,20140701,1
19,20140702,1
19,20140707,1
19,20140708,1
19,20140709,1
19,20140710,1
19,20140714,1
19,20140715,1
19,20140716,1
19,20140717,1
19,20140721,1
19,20140722,1
19,20140723,1
19,20140724,1
19,20140728,1
19,20140729,1
19,20140730,1
19,20140731,1
19,20140804,1
19,20140805,1
19,20140806,1
19,20140807,1
19,20140811,1
19,20140812,1
19,20140813,1
19,20140814,1
19,20140818,1
19,20140819,1
19,20140820,1
19,20140821,1
19,20140825,1
19,20140826,1
19,20140827,1
19,20140828,1
19,20140902,1
19,20140903,1
19,20140904,1
20,20140321,1
20,20140328,1
20,20140404,1
20,20140411,1
20,20140418,1
20,20140425,1
20,20140502,1
20,20140509,1
20,20140516,1
20,20140523,1
20,20140530,1
20,20140606,1
20,20140613,1
20,20140620,1
20,20140627,1
20,20140704,1
20,20140711,1
20,20140718,1
20,20140725,1
20,20140801,1
20,20140808,1
20,20140815,1
20,20140822,1
20,20140829,1
20,20140905,1
21,20140320,1
21,20140324,1
21,20140325,1
21,20140326,1
21,20140327,1
21,20140331,1
21,20140401,1
21,20140402,1
21,20140403,1
21,20140407,1
21,20140408,1
21,20140409,1
21,20140410,1
21,20140414,1
21,20140415,1
21,20140416,1
21,20140417,1
21,20140421,1
21,20140422,1
21,20140423,1
21,20140424,1
21,20140428,1
21,20140429,1
21,20140430,1
21,20140501,1
21,20140505,1
21,20140506,1
21,20140507,1
21,20140508,1
21,20140512,1
21,20140513,1
21,20140514,1
21,20140515,1
21,20140519,1
21,20140520,1
21,20140521,1
21,20140522,1
21,20140527,1
21,20140528,1
21,20140529,1
21,20140602,1
21,20140603,1
21,20140604,1
21,20140605,1
21,20140609,1
21,20140610,1
21,20140611,1
21,20140612,1
21,20140616,1
21,20140617,1
21,20140618,1
21,20140619,1
21,20140623,1
21,20140624,1
21,20140625,1
21,20140626,1
21,20140630,1
21,20140701,1
21,20140702,1
21,20140703,1
21,20140707,1
21,20140708,1
21,20140709,1
21,20140710,1
21,20140714,1
21,20140715,1
21,20140716,1
21,20140717,1
21,20140721,1
21,20140722,1
21,20140723,1
21,20140724,1
21,20140728,1
21,20140729,1
21,20140730,1
21,20140731,1
21,20140804,1
21,20140805,1
21,20140806,1
21,20140807,1
21,20140811,1
21,20140812,1
21,20140813,1
21,20140814,1
21,20140818,1
21,20140819,1
21,20140820,1
21,20140821,1
21,20140825,1
21,20140826,1
21,20140827,1
21,20140828,1
21,20140902,1
21,20140903,1
21,20140904,1
22,20140320,1
22,20140321,1
22,20140325,1
22,20140326,1
22,20140327,1
22,20140328,1
22,20140401,1
22,20140402,1
22,20140403,1
22,20140404,1
22,20140408,1
22,20140409,1
22,20140410,1
22,20140411,1
22,20140415,1
22,20140416,1
22,20140417,1
22,20140418,1
22,20140422,1
22,20140423,1
22,20140424,1
22,20140425,1
22,20140429,1
22,20140430,1
22,20140501,1
22,20140502,1
22,20140506,1
22,20140507,1
22,20140508,1
22,20140509,1
22,20140513,1
22,20140514,1
22,20140515,1
22,20140516,1
22,20140520,1
22,20140521,1
22,20140522,1
22,20140523,1
22,20140528,1
22,20140529,1
22,20140530,1
22,20140603,1
22,20140604,1
22,20140605,1
22,20140606,1
22,20140610,1
22,20140611,1
22,20140612,1
22,20140613,1
22,20140617,1
22,20140618,1
22,20140619,1
22,20140620,1
22,20140624,1
22,20140625,1
22,20140626,1
22,20140627,1
22,20140701,1
22,20140702,1
22,20140703,1
22,20140708,1
22,20140709,1
22,20140710,1
22,20140711,1
22,20140715,1
22,20140716,1
22,20140717,1
22,20140718,1
22,20140722,1
22,20140723,1
22,20140724,1
22,20140725,1
22,20140729,1
22,20140730,1
22,20140731,1
22,20140801,1
22,20140805,1
22,20140806,1
22,20140807,1
22,20140808,1
22,20140812,1
22,20140813,1
22,20140814,1
22,20140815,1
22,20140819,1
22,20140820,1
22,20140821,1
22,20140822,1
22,20140826,1
22,20140827,1
22,20140828,1
22,20140829,1
22,20140903,1
22,20140904,1
22,20140905,1
23,20140324,1
23,20140331,1
23,20140407,1
23,20140414,1
23,20140421,1
23,20140428,1
23,20140505,1
23,20140512,1
23,20140519,1
23,20140527,1
23,20140602,1
23,20140609,1
23,20140616,1
23,20140623,1
23,20140630,1
23,20140707,1
23,20140714,1
23,20140721,1
23,20140728,1
23,20140804,1
23,20140811,1
23,20140818,1
23,20140825,1
23,20140902,1
24,20140606,1
24,20140613,1
24,20140620,1
24,20140627,1
24,20140711,1
24,20140718,1
24,20140725,1
24,20140801,1
24,20140808,1
24,20140815,1
24,20140822,1
24,20140829,1
25,20140510,1
25,20140511,1
25,20140517,1
25,20140518,1
25,20140524,1
25,20140525,1
25,20140526,1
25,20140531,1
25,20140601,1
25,20140607,1
25,20140608,1
25,20140614,1
25,20140615,1
25,20140621,1
25,20140622,1
25,20140628,1
25,20140629,1
25,20140704,1
25,20140705,1
25,20140706,1
25,20140712,1
25,20140713,1
25,20140719,1
25,20140720,1
25,20140726,1
25,20140727,1
25,20140802,1
25,20140803,1
25,20140809,1
25,20140810,1
25,20140816,1
25,20140817,1
25,20140823,1
25,20140824,1
25,20140830,1
25,20140831,1
25,20140901,1
25,20140906,1
26,20140322,1
26,20140323,1
26,20140329,1
26,20140330,1
26,20140405,1
26,20140406,1
26,20140412,1
26,20140413,1
26,20140419,1
26,20140420,1
26,20140426,1
26,20140427,1
26,20140503,1
26,20140504,1
27,20140320,1
27,20140321,1
27,20140324,1
27,20140325,1
27,20140326,1
27,20140327,1
27,20140328,1
27,20140331,1
27,20140401,1
27,20140402,1
27,20140403,1
27,20140404,1
27,20140407,1
27,20140408,1
27,20140409,1
27,20140410,1
27,20140411,1
27,20140414,1
27,20140415,1
27,20140416,1
27,20140417,1
27,20140418,1
27,20140421,1
27,20140422,1
27,20140423,1
27,20140424,1
27,20140425,1
27,20140428,1
27,20140429,1
27,20140430,1
27,20140501,1
27,20140502,1
27,20140505,1
27,20140506,1
27,20140507,1
27,20140508,1
27,20140509,1
27,20140512,1
27,20140513,1
27,20140514,1
27,20140515,1
27,20140516,1
27,20140519,1
27,20140520,1
27,20140521,1
27,20140522,1
27,20140523,1
27,20140527,1
27,20140528,1
27,20140529,1
27,20140530,1
27,20140602,1
27,20140603,1
27,20140604,1
27,20140605,1
27,20140609,1
27,20140610,1
27,20140611,1
27,20140612,1
27,20140616,1
27,20140617,1
27,20140618,1
27,20140619,1
27,20140623,1
27,20140624,1
27,20140625,1
27,20140626,1
27,20140630,1
27,20140701,1
27,20140702,1
27,20140703,1
27,20140707,1
27,20140708,1
27,20140709,1
27,20140710,1
27,20140714,1
27,20140715,1
27,20140716,1
27,20140717,1
27,20140721,1
27,20140722,1
27,20140723,1
27,20140724,1
27,20140728,1
27,20140729,1
27,20140730,1
27,20140731,1
27,20140804,1
27,20140805,1
27,20140806,1
27,20140807,1
27,20140811,1
27,20140812,1
27,20140813,1
27,20140814,1
27,20140818,1
27,20140819,1
27,20140820,1
27,20140821,1
27,20140825,1
27,20140826,1
27,20140827,1
27,20140828,1
27,20140902,1
27,20140903,1
27,20140904,1
27,20140905,1
28,20140829,1
29,20140606,1
29,20140613,1
29,20140620,1
29,20140627,1
29,20140711,1
29,20140718,1
29,20140725,1
29,20140801,1
29,20140808,1
29,20140815,1
29,20140822,1
30,20140523,1
30,20140703,1
31,20140320,1
31,20140321,1
31,20140324,1
31,20140325,1
31,20140326,1
31,20140327,1
31,20140328,1
31,20140331,1
31,20140401,1
31,20140402,1
31,20140403,1
31,20140404,1
31,20140407,1
31,20140408,1
31,20140409,1
31,20140410,1
31,20140411,1
31,20140414,1
31,20140415,1
31,20140416,1
31,20140417,1
31,20140418,1
31,20140421,1
31,20140422,1
31,20140423,1
31,20140424,1
31,20140425,1
31,20140428,1
31,20140429,1
31,20140430,1
31,20140501,1
31,20140502,1
31,20140505,1
31,20140506,1
31,20140507,1
31,20140508,1
31,20140509,1
31,20140512,1
31,20140513,1
31,20140514,1
31,20140515,1
31,20140516,1
31,20140519,1
31,20140520,1
31,20140521,1
31,20140522,1
31,20140527,1
31,20140528,1
31,20140529,1
31,20140530,1
31,20140602,1
31,20140603,1
31,20140604,1
31,20140605,1
31,20140609,1
31,20140610,1
31,20140611,1
31,20140612,1
31,20140616,1
31,20140617,1
31,20140618,1
31,20140619,1
31,20140623,1
31,20140624,1
31,20140625,1
31,20140626,1
31,20140630,1
31,20140701,1
31,20140702,1
31,20140707,1
31,20140708,1
31,20140709,1
31,20140710,1
31,20140714,1
31,20140715,1
31,20140716,1
31,20140717,1
31,20140721,1
31,20140722,1
31,20140723,1
31,20140724,1
31,20140728,1
31,20140729,1
31,20140730,1
31,20140731,1
31,20140804,1
31,20140805,1
31,20140806,1
31,20140807,1
31,20140811,1
31,20140812,1
31,20140813,1
31,20140814,1
31,20140818,1
31,20140819,1
31,20140820,1
31,20140821,1
31,20140825,1
31,20140826,1
31,20140827,1
31,20140828,1
31,20140902,1
31,20140903,1
31,20140904,1
31,20140905,1
32,20140322,1
32,20140329,1
32,20140405,1
32,20140412,1
32,20140419,1
32,20140426,1
32,20140503,1
32,20140510,1
32,20140517,1
32,20140524,1
32,20140525,1
32,20140531,1
32,20140607,1
32,20140614,1
32,20140621,1
32,20140628,1
32,20140704,1
32,20140705,1
32,20140712,1
32,20140719,1
32,20140726,1
32,20140802,1
32,20140809,1
32,20140816,1
32,20140823,1
32,20140830,1
32,20140831,1
33,20140323,1
33,20140330,1
33,20140406,1
33,20140413,1
33,20140420,1
33,20140427,1
33,20140504,1
33,20140511,1
33,20140518,1
33,20140526,1
33,20140601,1
33,20140608,1
33,20140615,1
33,20140622,1
33,20140629,1
33,20140706,1
33,20140713,1
33,20140720,1
33,20140727,1
33,20140803,1
33,20140810,1
33,20140817,1
33,20140824,1
33,20140901,1
34,20140321,1
34,20140328,1
34,20140404,1
34,20140411,1
34,20140414,1
34,20140418,1
34,20140425,1
34,20140502,1
34,20140509,1
34,20140516,1
34,20140523,1
34,20140530,1
34,20140606,1
34,20140613,1
34,20140620,1
34,20140627,1
34,20140703,1
34,20140711,1
34,20140718,1
34,20140725,1
34,20140801,1
34,20140808,1
34,20140815,1
34,20140822,1
34,20140829,1
34,20140905,1
35,20140320,1
35,20140324,1
35,20140325,1
35,20140326,1
35,20140327,1
35,20140331,1
35,20140401,1
35,20140402,1
35,20140403,1
35,20140407,1
35,20140408,1
35,20140409,1
35,20140410,1
35,20140415,1
35,20140416,1
35,20140417,1
35,20140421,1
35,20140422,1
35,20140423,1
35,20140424,1
35,20140428,1
35,20140429,1
35,20140430,1
35,20140501,1
35,20140505,1
35,20140506,1
35,20140507,1
35,20140508,1
35,20140512,1
35,20140513,1
35,20140514,1
35,20140515,1
35,20140519,1
35,20140520,1
35,20140521,1
35,20140522,1
35,20140527,1
35,20140528,1
35,20140529,1
35,20140602,1
35,20140603,1
35,20140604,1
35,20140605,1
35,20140609,1
35,20140610,1
35,20140611,1
35,20140612,1
35,20140616,1
35,20140617,1
35,20140618,1
35,20140619,1
35,20140623,1
35,20140624,1
35,20140625,1
35,20140626,1
35,20140630,1
35,20140701,1
35,20140702,1
35,20140707,1
35,20140708,1
35,20140709,1
35,20140710,1
35,20140714,1
35,20140715,1
35,20140716,1
35,20140717,1
35,20140721,1
35,20140722,1
35,20140723,1
35,20140724,1
35,20140728,1
35,20140729,1
35,20140730,1
35,20140731,1
35,20140804,1
35,20140805,1
35,20140806,1
35,20140807,1
35,20140811,1
35,20140812,1
35,20140813,1
35,20140814,1
35,20140818,1
35,20140819,1
35,20140820,1
35,20140821,1
35,20140825,1
35,20140826,1
35,20140827,1
35,20140828,1
35,20140902,1
35,20140903,1
35,20140904,1
36,20140320,1
36,20140321,1
36,20140324,1
36,20140325,1
36,20140326,1
36,20140327,1
36,20140328,1
36,20140331,1
36,20140401,1
36,20140402,1
36,20140403,1
36,20140404,1
36,20140407,1
36,20140408,1
36,20140409,1
36,20140410,1
36,20140411,1
36,20140414,1
36,20140415,1
36,20140416,1
36,20140417,1
36,20140418,1
36,20140421,1
36,20140422,1
36,20140423,1
36,20140424,1
36,20140425,1
36,20140428,1
36,20140429,1
36,20140430,1
36,20140501,1
36,20140502,1
36,20140505,1
36,20140506,1
36,20140507,1
36,20140508,1
36,20140509,1
36,20140512,1
36,20140513,1
36,20140514,1
36,20140515,1
36,20140516,1
36,20140519,1
36,20140520,1
36,20140521,1
36,20140522,1
36,20140523,1
36,20140526,1
36,20140527,1
36,20140528,1
36,20140529,1
36,20140530,1
36,20140602,1
36,20140603,1
36,20140604,1
36,20140605,1
36,20140606,1
36,20140609,1
36,20140610,1
36,20140611,1
36,20140612,1
36,20140613,1
36,20140616,1
36,20140617,1
36,20140618,1
36,20140619,1
36,20140620,1
36,20140623,1
36,20140624,1
36,20140625,1
36,20140626,1
36,20140627,1
36,20140630,1
36,20140701,1
36,20140702,1
36,20140703,1
36,20140704,1
36,20140707,1
36,20140708,1
36,20140709,1
36,20140710,1
36,20140711,1
36,20140714,1
36,20140715,1
36,20140716,1
36,20140717,1
36,20140718,1
36,20140721,1
36,20140722,1
36,20140723,1
36,20140724,1
36,20140725,1
36,20140728,1
36,20140729,1
36,20140730,1
36,20140731,1
36,20140801,1
36,20140804,1
36,20140805,1
36,20140806,1
36,20140807,1
36,20140808,1
36,20140811,1
36,20140812,1
36,20140813,1
36,20140814,1
36,20140815,1
36,20140818,1
36,20140819,1
36,20140820,1
36,20140821,1
36,20140822,1
36,20140825,1
36,20140826,1
36,20140827,1
36,20140828,1
36,20140829,1
